,KeywordText,KeywordMatchType,device_level,month,Cost
9905,kreditvergleich,Exact,Computers,2,2364.18
9928,kreditvergleich,Exact,Computers,2,1768.79
9930,kreditvergleich,Exact,Computers,2,1936.36
9968,kreditvergleich,Exact,Computers,2,2256.45
9980,kreditvergleich,Exact,Computers,2,2474.14
9982,kreditvergleich,Exact,Computers,2,1860.98
10000,kreditvergleich,Exact,Computers,2,1447.85
42764,kreditvergleich,Exact,Computers,2,9.04
42778,kreditvergleich,Exact,Computers,2,0.0
42807,kreditvergleich,Exact,Computers,2,5.27
42816,kreditvergleich,Exact,Computers,2,0.0
42838,kreditvergleich,Exact,Computers,2,0.0
42840,kreditvergleich,Exact,Computers,2,11.17
42853,kreditvergleich,Exact,Computers,2,0.0
70770,kreditvergleich,Exact,Computers,2,16.6
70774,kreditvergleich,Exact,Computers,2,14.57
70780,kreditvergleich,Exact,Computers,2,23.71
70813,kreditvergleich,Exact,Computers,2,7.37
70836,kreditvergleich,Exact,Computers,2,53.46
70851,kreditvergleich,Exact,Computers,2,53.15
70864,kreditvergleich,Exact,Computers,2,67.86
124864,kreditvergleich,Exact,Computers,2,151.88
124891,kreditvergleich,Exact,Computers,2,91.18
124909,kreditvergleich,Exact,Computers,2,114.39
124928,kreditvergleich,Exact,Computers,2,89.17
124943,kreditvergleich,Exact,Computers,2,230.01
124949,kreditvergleich,Exact,Computers,2,120.4
124952,kreditvergleich,Exact,Computers,2,120.99
171769,kreditvergleich,Exact,Computers,2,50.79
171789,kreditvergleich,Exact,Computers,2,57.78
171801,kreditvergleich,Exact,Computers,2,97.31
171806,kreditvergleich,Exact,Computers,2,91.01
171829,kreditvergleich,Exact,Computers,2,57.75
171844,kreditvergleich,Exact,Computers,2,71.21
171855,kreditvergleich,Exact,Computers,2,19.8
